 [2013-01-01 19:56:05] (ERROR in xPDOConnection::connect @ /home/dnsmanpro/public_html/blog/core/xpdo/xpdo.class.php : 2997) SQLSTATE[HY000] [2002] Can't connect to local MySQL server through socket '/var/run/mysqld/mysqld.sock' (2)
[2013-01-01 19:56:58] (ERROR in xPDOConnection::connect @ /home/dnsmanpro/public_html/blog/core/xpdo/xpdo.class.php : 2997) SQLSTATE[HY000] [2002] Can't connect to local MySQL server through socket '/var/run/mysqld/mysqld.sock' (2)
[2013-01-01 19:56:59] (ERROR @ /blog/index.php) Error preparing statement for query: SELECT modAccessContext.id, modAccessContext.target, modAccessContext.principal, modAccessContext.authority, modAccessContext.policy, Policy.data FROM `modx_access_context` AS `modAccessContext` LEFT JOIN `modx_access_policies` `Policy` ON `modAccessContext`.`policy` =  `Policy`.`id` WHERE  ( `modAccessContext`.`principal_class` = ? AND `modAccessContext`.`target` = ? )  ORDER BY modAccessContext.target,modAccessContext.principal,modAccessContext.authority,modAccessContext.policy ASC  - 
[2013-01-01 19:57:11] (ERROR in xPDOConnection::connect @ /home/dnsmanpro/public_html/blog/core/xpdo/xpdo.class.php : 2997) SQLSTATE[HY000] [2002] Can't connect to local MySQL server through socket '/var/run/mysqld/mysqld.sock' (2)
[2013-01-01 19:57:13] (ERROR in xPDOConnection::connect @ /home/dnsmanpro/public_html/blog/core/xpdo/xpdo.class.php : 2997) SQLSTATE[HY000] [2002] Can't connect to local MySQL server through socket '/var/run/mysqld/mysqld.sock' (2)
[2013-01-01 19:57:13] (ERROR @ /blog/index.php) Error preparing statement for query: SELECT `modResource`.* FROM `modx_site_content` AS `modResource` WHERE  ( `modResource`.`id` = ? AND `modResource`.`deleted` = ? )   - 
